<?xml version="1.0" encoding="utf-8"?>
<!DOCTYPE svg PUBLIC "-//W3C//DTD SVG 20010904//EN"
 "http://www.w3.org/TR/2001/REC-SVG-20010904/DTD/svg10.dtd">
<svg version="1.0" xmlns="http://www.w3.org/2000/svg"
 width="225.000000pt" height="225.000000pt" viewBox="0 0 225.000000 225.000000"
 preserveAspectRatio="xMidYMid meet">
<metadata>
Created by potrace 1.15, written by Peter Selinger 2001-2017
</metadata>
<g transform="translate(0.000000,225.000000) scale(0.100000,-0.100000)"
fill="#444" stroke="none">
<path d="M1325 2241 c-59 -15 -106 -44 -149 -92 -103 -115 -98 -285 12 -363
58 -41 161 -48 245 -16 74 28 148 100 171 166 38 111 4 231 -79 279 -46 28
-146 41 -200 26z"/>
<path d="M1273 1445 c-182 -49 -474 -211 -641 -354 l-23 -20 26 -46 c15 -25
28 -45 30 -45 1 0 54 24 116 54 134 64 176 75 185 51 4 -9 -35 -193 -87 -408
-82 -342 -94 -403 -94 -482 0 -100 12 -135 58 -169 39 -29 138 -28 232 3 96
32 251 113 343 179 80 57 222 179 222 190 0 4 -15 25 -33 46 l-34 39 -44 -30
c-59 -41 -156 -89 -198 -98 -69 -15 -68 24 14 334 113 433 135 530 135 603 0
150 -58 193 -207 153z"/>
</g>
</svg>
